Portal Rodent Abundance Demo • portalr
…
And to identify the datespan over which these plots have been controls:

date_span <- plot_treatments %>%
  filter(plot %in% mostly_control_plots$plot) %>%
  group_by(iso_date) %>%
  summarize(all_control = all(treatment == "control")) %>%
  filter(all_control)

print(date_span)
#> # A tibble: 411 x 2
#>    iso_date   all_control
#>    <date>     <lgl>      
#>  1 1977-07-01 TRUE       
#>  2 1977-08-01 TRUE       
#>  3 1977-09-01 TRUE       
#>  4 1977-10-01 TRUE       
#>  5 1977-11-01 TRUE       
#>  6 1977-12-01 TRUE       
#>  7 1978-01-01 TRUE       
#>  8 1978-02-01 TRUE       
#>  9 1978-03-01 TRUE       
#> 10 1978-04-01 TRUE       
#> # … with 401 more rows
…
Then, the datespan:

date_span <- plot_treatments %>%
  filter(plot %in% mostly_exclosure_plots$plot) %>%
  group_by(iso_date) %>%
  summarize(all_exclosure = all(treatment == "exclosure")) %>%
  filter(all_exclosure)

print(date_span)
#> # A tibble: 297 x 2
#>    iso_date   all_exclosure
#>    <date>     <lgl>        
#>  1 1988-01-01 TRUE         
#>  2 1988-02-01 TRUE         
#>  3 1988-03-01 TRUE         
#>  4 1988-04-01 TRUE         
#>  5 1988-05-01 TRUE         
#>  6 1988-06-01 TRUE         
#>  7 1988-07-01 TRUE         
#>  8 1988-08-01 TRUE         
#>  9 1988-09-01 TRUE         
#> 10 1988-10-01 TRUE         
#> # … with 287 more rows
…
